C:\Users\JEYSON\OneDrive\Documentos\NetBeansProjects\mensajes_app\src\main\java\com\mycompany\mensajes_app\Inicio.java
C:\Users\JEYSON\OneDrive\Documentos\NetBeansProjects\mensajes_app\src\main\java\com\mycompany\mensajes_app\Conexion.java
C:\Users\JEYSON\OneDrive\Documentos\NetBeansProjects\mensajes_app\src\main\java\com\mycompany\mensajes_app\MensajesDAO.java
C:\Users\JEYSON\OneDrive\Documentos\NetBeansProjects\mensajes_app\src\main\java\com\mycompany\mensajes_app\Mensajes_Service.java
C:\Users\JEYSON\OneDrive\Documentos\NetBeansProjects\mensajes_app\src\main\java\com\mycompany\mensajes_app\Mensajes.java
